(module "C0402_NEW" (layer F.Cu) (tedit 64170667)
  (descr "C0402_NEW footprint")
  (tags "C0402_NEW footprint")
  (fp_text reference REF** (at 0 -2.498603) (layer F.SilkS)
    (effects (font (size 1 1) (thickness 0.15)))
  )
  (fp_text value C0402_NEW (at 0 2.498603) (layer F.Fab)
    (effects (font (size 1 1) (thickness 0.15)))
  )
  (fp_arc (start 1.016307 0.346203) (end 1.168707 0.346203) (angle 90) (layer F.SilkS) (width 0.1524))
  (fp_arc (start 1.016307 -0.346203) (end 1.016307 -0.498603) (angle 90) (layer F.SilkS) (width 0.1524))
  (fp_arc (start -1.016307 0.346203) (end -1.016307 0.498603) (angle 90) (layer F.SilkS) (width 0.1524))
  (fp_arc (start -1.016307 -0.346203) (end -1.168707 -0.346203) (angle 90) (layer F.SilkS) (width 0.1524))
  (fp_circle (center -0.5 0.250013) (end -0.470003 0.250013) (layer F.SilkS) (width 0.059995))
  (fp_line (start -1.016307 -0.498603) (end -0.226213 -0.498603) (layer F.SilkS) (width 0.1524))
  (fp_line (start 0.226213 0.498603) (end 1.016307 0.498603) (layer F.SilkS) (width 0.1524))
  (fp_line (start 1.016307 -0.498603) (end 0.226213 -0.498603) (layer F.SilkS) (width 0.1524))
  (fp_line (start 1.168707 0.346203) (end 1.168707 -0.346203) (layer F.SilkS) (width 0.1524))
  (fp_line (start -0.226213 0.498603) (end -1.016307 0.498603) (layer F.SilkS) (width 0.1524))
  (fp_line (start -1.168707 0.346203) (end -1.168707 -0.346203) (layer F.SilkS) (width 0.1524))
  (pad 2 smd rect (at 0.545085 0) (size 0.790094 0.540005) (layers F.Cu F.Mask F.Paste))
  (pad 1 smd rect (at -0.545085 0) (size 0.790094 0.540005) (layers F.Cu F.Mask F.Paste))
  (fp_text user REF** (at 0 4.498603) (layer F.Fab)
    (effects (font (size 1 1) (thickness 0.15)))
  )
  (model "D:/UCT/GitLab/eee3088f-main-project/KiCAD Files/Footprints/JLC2KiCad_lib/footprint/packages3d/C0402_NEW.wrl"
    (at (xyz 0 0 0.00984))
    (scale (xyz 1 1 1))
    (rotate (xyz 0 0 0))
  )
)