ERC report (2023/03/18 15:43:56, Encoding UTF8)

***** Sheet /

***** Sheet /Power Source/
[lib_symbol_issues]: Symbol 'MCP73831T-2ACI/OT' has been modified in library 'Bright_Ideas_Library'
    ; Severity: warning
    @(107.9500 mm, 29.2100 mm): Symbol U5 [MCP73831T-2ACI/OT]

***** Sheet /Microcontroller/
[lib_symbol_issues]: Symbol 'MICROXNJ' has been modified in library 'Bright_Ideas_Library'
    ; Severity: warning
    @(71.1200 mm, 68.5800 mm): Symbol J1 [MICROXNJ]
[multiple_net_names]: Both NRST and SW0 are attached to the same items; NRST will be used in the netlist
    ; Severity: warning
    @(52.0700 mm, 109.8550 mm): Label 'NRST'
    @(67.3100 mm, 41.9100 mm): Label 'SW0'
[lib_symbol_issues]: Symbol 'CAT24C256WI-G' has been modified in library 'Bright_Ideas_Library'
    ; Severity: warning
    @(127.0000 mm, 31.7500 mm): Symbol U3 [CAT24C256WI-G]
[power_pin_not_driven]: Input Power pin not driven by any Output Power pins
    ; Severity: error
    @(144.7800 mm, 21.5900 mm): Symbol U3 Pin 8 [VCC, Power input, Line]
[multiple_net_names]: Both I2C_SDA_Sensor and I2C_SDA_DSensor are attached to the same items; I2C_SDA_Sensor will be used in the netlist
    ; Severity: warning
    @(81.2800 mm, 122.5550 mm): Label 'I2C_SDA_Sensor'
    @(162.5600 mm, 109.2200 mm): Hierarchical Label 'I2C_SDA_DSensor'
[multiple_net_names]: Both I2C_SCL_Sensor and I2C_SCL_DSensor are attached to the same items; I2C_SCL_Sensor will be used in the netlist
    ; Severity: warning
    @(81.2800 mm, 120.0150 mm): Label 'I2C_SCL_Sensor'
    @(160.0200 mm, 120.6500 mm): Hierarchical Label 'I2C_SCL_DSensor'
[power_pin_not_driven]: Input Power pin not driven by any Output Power pins
    ; Severity: error
    @(236.8550 mm, 30.4800 mm): Symbol U6 Pin 5 [VCC, Power input, Line]
[lib_symbol_issues]: Symbol 'CH340N' has been modified in library 'Bright_Ideas_Library'
    ; Severity: warning
    @(226.6950 mm, 26.6700 mm): Symbol U6 [CH340N]

***** Sheet /Sensor/
[power_pin_not_driven]: Input Power pin not driven by any Output Power pins
    ; Severity: error
    @(60.9600 mm, 117.4750 mm): Symbol U2 Pin 1 [VDD, Power input, Line]
[lib_symbol_issues]: The current configuration does not include the library 'New_Library'
    ; Severity: warning
    @(144.7800 mm, 31.7500 mm): Symbol U7 [U]

***** Sheet /Motor/

 ** ERC messages: 11  Errors 3  Warnings 8
