(kicad_sch (version 20230121) (generator eeschema)

  (uuid 98306595-2355-423b-a559-e4dfdcac2bcc)

  (paper "A4")

  (lib_symbols
    (symbol "Device:C_Small" (pin_numbers hide) (pin_names (offset 0.254) hide) (in_bom yes) (on_board yes)
      (property "Reference" "C" (at 0.254 1.778 0)
        (effects (font (size 1.27 1.27)) (justify left))
      )
      (property "Value" "C_Small" (at 0.254 -2.032 0)
        (effects (font (size 1.27 1.27)) (justify left))
      )
      (property "Footprint" "" (at 0 0 0)
        (effects (font (size 1.27 1.27)) hide)
      )
      (property "Datasheet" "~" (at 0 0 0)
        (effects (font (size 1.27 1.27)) hide)
      )
      (property "ki_keywords" "capacitor cap" (at 0 0 0)
        (effects (font (size 1.27 1.27)) hide)
      )
      (property "ki_description" "Unpolarized capacitor, small symbol" (at 0 0 0)
        (effects (font (size 1.27 1.27)) hide)
      )
      (property "ki_fp_filters" "C_*" (at 0 0 0)
        (effects (font (size 1.27 1.27)) hide)
      )
      (symbol "C_Small_0_1"
        (polyline
          (pts
            (xy -1.524 -0.508)
            (xy 1.524 -0.508)
          )
          (stroke (width 0.3302) (type default))
          (fill (type none))
        )
        (polyline
          (pts
            (xy -1.524 0.508)
            (xy 1.524 0.508)
          )
          (stroke (width 0.3048) (type default))
          (fill (type none))
        )
      )
      (symbol "C_Small_1_1"
        (pin passive line (at 0 2.54 270) (length 2.032)
          (name "~" (effects (font (size 1.27 1.27))))
          (number "1" (effects (font (size 1.27 1.27))))
        )
        (pin passive line (at 0 -2.54 90) (length 2.032)
          (name "~" (effects (font (size 1.27 1.27))))
          (number "2" (effects (font (size 1.27 1.27))))
        )
      )
    )
    (symbol "Device:R" (pin_numbers hide) (pin_names (offset 0)) (in_bom yes) (on_board yes)
      (property "Reference" "R" (at 2.032 0 90)
        (effects (font (size 1.27 1.27)))
      )
      (property "Value" "R" (at 0 0 90)
        (effects (font (size 1.27 1.27)))
      )
      (property "Footprint" "" (at -1.778 0 90)
        (effects (font (size 1.27 1.27)) hide)
      )
      (property "Datasheet" "~" (at 0 0 0)
        (effects (font (size 1.27 1.27)) hide)
      )
      (property "ki_keywords" "R res resistor" (at 0 0 0)
        (effects (font (size 1.27 1.27)) hide)
      )
      (property "ki_description" "Resistor" (at 0 0 0)
        (effects (font (size 1.27 1.27)) hide)
      )
      (property "ki_fp_filters" "R_*" (at 0 0 0)
        (effects (font (size 1.27 1.27)) hide)
      )
      (symbol "R_0_1"
        (rectangle (start -1.016 -2.54) (end 1.016 2.54)
          (stroke (width 0.254) (type default))
          (fill (type none))
        )
      )
      (symbol "R_1_1"
        (pin passive line (at 0 3.81 270) (length 1.27)
          (name "~" (effects (font (size 1.27 1.27))))
          (number "1" (effects (font (size 1.27 1.27))))
        )
        (pin passive line (at 0 -3.81 90) (length 1.27)
          (name "~" (effects (font (size 1.27 1.27))))
          (number "2" (effects (font (size 1.27 1.27))))
        )
      )
    )
    (symbol "Sensor_Temperature:MAX31820" (in_bom yes) (on_board yes)
      (property "Reference" "U" (at -3.81 6.35 0)
        (effects (font (size 1.27 1.27)))
      )
      (property "Value" "MAX31820" (at 6.35 6.35 0)
        (effects (font (size 1.27 1.27)))
      )
      (property "Footprint" "Package_TO_SOT_THT:TO-92_Inline" (at -25.4 -6.35 0)
        (effects (font (size 1.27 1.27)) hide)
      )
      (property "Datasheet" "http://datasheets.maximintegrated.com/en/ds/MAX31820.pdf" (at -3.81 6.35 0)
        (effects (font (size 1.27 1.27)) hide)
      )
      (property "ki_keywords" "OneWire 1-Wire 1Wire Maxim Dallas" (at 0 0 0)
        (effects (font (size 1.27 1.27)) hide)
      )
      (property "ki_description" "1-Wire Ambient Temperature Sensor TO-92" (at 0 0 0)
        (effects (font (size 1.27 1.27)) hide)
      )
      (property "ki_fp_filters" "TO*92*" (at 0 0 0)
        (effects (font (size 1.27 1.27)) hide)
      )
      (symbol "MAX31820_0_1"
        (rectangle (start -5.08 5.08) (end 5.08 -5.08)
          (stroke (width 0.254) (type default))
          (fill (type background))
        )
        (circle (center -3.302 -2.54) (radius 1.27)
          (stroke (width 0.254) (type default))
          (fill (type outline))
        )
        (rectangle (start -2.667 -1.905) (end -3.937 0)
          (stroke (width 0.254) (type default))
          (fill (type outline))
        )
        (arc (start -2.667 3.175) (mid -3.302 3.8073) (end -3.937 3.175)
          (stroke (width 0.254) (type default))
          (fill (type none))
        )
        (polyline
          (pts
            (xy -3.937 0.635)
            (xy -3.302 0.635)
          )
          (stroke (width 0.254) (type default))
          (fill (type none))
        )
        (polyline
          (pts
            (xy -3.937 1.27)
            (xy -3.302 1.27)
          )
          (stroke (width 0.254) (type default))
          (fill (type none))
        )
        (polyline
          (pts
            (xy -3.937 1.905)
            (xy -3.302 1.905)
          )
          (stroke (width 0.254) (type default))
          (fill (type none))
        )
        (polyline
          (pts
            (xy -3.937 2.54)
            (xy -3.302 2.54)
          )
          (stroke (width 0.254) (type default))
          (fill (type none))
        )
        (polyline
          (pts
            (xy -3.937 3.175)
            (xy -3.937 0)
          )
          (stroke (width 0.254) (type default))
          (fill (type none))
        )
        (polyline
          (pts
            (xy -3.937 3.175)
            (xy -3.302 3.175)
          )
          (stroke (width 0.254) (type default))
          (fill (type none))
        )
        (polyline
          (pts
            (xy -2.667 3.175)
            (xy -2.667 0)
          )
          (stroke (width 0.254) (type default))
          (fill (type none))
        )
      )
      (symbol "MAX31820_1_1"
        (pin power_in line (at 0 -7.62 90) (length 2.54)
          (name "GND" (effects (font (size 1.27 1.27))))
          (number "1" (effects (font (size 1.27 1.27))))
        )
        (pin bidirectional line (at 7.62 0 180) (length 2.54)
          (name "DQ" (effects (font (size 1.27 1.27))))
          (number "2" (effects (font (size 1.27 1.27))))
        )
        (pin power_in line (at 0 7.62 270) (length 2.54)
          (name "V_{DD}" (effects (font (size 1.27 1.27))))
          (number "3" (effects (font (size 1.27 1.27))))
        )
      )
    )
    (symbol "U_1" (in_bom yes) (on_board yes)
      (property "Reference" "U2" (at 0 -7.62 0)
        (effects (font (size 1.27 1.27)))
      )
      (property "Value" "" (at -3.81 6.35 0)
        (effects (font (size 1.27 1.27)))
      )
      (property "Footprint" "" (at -3.81 6.35 0)
        (effects (font (size 1.27 1.27)) hide)
      )
      (property "Datasheet" "" (at -3.81 6.35 0)
        (effects (font (size 1.27 1.27)) hide)
      )
      (symbol "U_1_0_1"
        (rectangle (start -10.16 5.08) (end 10.16 -5.08)
          (stroke (width 0) (type default))
          (fill (type none))
        )
      )
      (symbol "U_1_1_1"
        (pin input line (at -12.7 2.54 0) (length 2.54)
          (name "IOUT" (effects (font (size 1.27 1.27))))
          (number "1" (effects (font (size 1.27 1.27))))
        )
        (pin input line (at -12.7 0 0) (length 2.54)
          (name "GND" (effects (font (size 1.27 1.27))))
          (number "2" (effects (font (size 1.27 1.27))))
        )
        (pin input line (at -12.7 -2.54 0) (length 2.54)
          (name "VCC" (effects (font (size 1.27 1.27))))
          (number "3" (effects (font (size 1.27 1.27))))
        )
        (pin input line (at 12.7 -2.54 180) (length 2.54)
          (name "NC" (effects (font (size 1.27 1.27))))
          (number "4" (effects (font (size 1.27 1.27))))
        )
        (pin input line (at 12.7 0 180) (length 2.54)
          (name "GC1" (effects (font (size 1.27 1.27))))
          (number "5" (effects (font (size 1.27 1.27))))
        )
        (pin input line (at 12.7 2.54 180) (length 2.54)
          (name "GC2" (effects (font (size 1.27 1.27))))
          (number "6" (effects (font (size 1.27 1.27))))
        )
        (pin input line (at 0 7.62 270) (length 2.54)
          (name "EP" (effects (font (size 1.27 1.27))))
          (number "7" (effects (font (size 1.27 1.27))))
        )
      )
    )
    (symbol "power:GND" (power) (pin_names (offset 0)) (in_bom yes) (on_board yes)
      (property "Reference" "#PWR" (at 0 -6.35 0)
        (effects (font (size 1.27 1.27)) hide)
      )
      (property "Value" "GND" (at 0 -3.81 0)
        (effects (font (size 1.27 1.27)))
      )
      (property "Footprint" "" (at 0 0 0)
        (effects (font (size 1.27 1.27)) hide)
      )
      (property "Datasheet" "" (at 0 0 0)
        (effects (font (size 1.27 1.27)) hide)
      )
      (property "ki_keywords" "global power" (at 0 0 0)
        (effects (font (size 1.27 1.27)) hide)
      )
      (property "ki_description" "Power symbol creates a global label with name \"GND\" , ground" (at 0 0 0)
        (effects (font (size 1.27 1.27)) hide)
      )
      (symbol "GND_0_1"
        (polyline
          (pts
            (xy 0 0)
            (xy 0 -1.27)
            (xy 1.27 -1.27)
            (xy 0 -2.54)
            (xy -1.27 -1.27)
            (xy 0 -1.27)
          )
          (stroke (width 0) (type default))
          (fill (type none))
        )
      )
      (symbol "GND_1_1"
        (pin power_in line (at 0 0 270) (length 0) hide
          (name "GND" (effects (font (size 1.27 1.27))))
          (number "1" (effects (font (size 1.27 1.27))))
        )
      )
    )
    (symbol "power:VDD" (power) (pin_names (offset 0)) (in_bom yes) (on_board yes)
      (property "Reference" "#PWR" (at 0 -3.81 0)
        (effects (font (size 1.27 1.27)) hide)
      )
      (property "Value" "VDD" (at 0 3.81 0)
        (effects (font (size 1.27 1.27)))
      )
      (property "Footprint" "" (at 0 0 0)
        (effects (font (size 1.27 1.27)) hide)
      )
      (property "Datasheet" "" (at 0 0 0)
        (effects (font (size 1.27 1.27)) hide)
      )
      (property "ki_keywords" "global power" (at 0 0 0)
        (effects (font (size 1.27 1.27)) hide)
      )
      (property "ki_description" "Power symbol creates a global label with name \"VDD\"" (at 0 0 0)
        (effects (font (size 1.27 1.27)) hide)
      )
      (symbol "VDD_0_1"
        (polyline
          (pts
            (xy -0.762 1.27)
            (xy 0 2.54)
          )
          (stroke (width 0) (type default))
          (fill (type none))
        )
        (polyline
          (pts
            (xy 0 0)
            (xy 0 2.54)
          )
          (stroke (width 0) (type default))
          (fill (type none))
        )
        (polyline
          (pts
            (xy 0 2.54)
            (xy 0.762 1.27)
          )
          (stroke (width 0) (type default))
          (fill (type none))
        )
      )
      (symbol "VDD_1_1"
        (pin power_in line (at 0 0 90) (length 0) hide
          (name "VDD" (effects (font (size 1.27 1.27))))
          (number "1" (effects (font (size 1.27 1.27))))
        )
      )
    )
  )


  (wire (pts (xy 73.66 93.98) (xy 78.74 93.98))
    (stroke (width 0) (type default))
    (uuid 072f6002-ad5c-497d-9886-2f123a6f83f1)
  )
  (wire (pts (xy 171.45 97.79) (xy 173.355 97.79))
    (stroke (width 0) (type default))
    (uuid 12835a38-3e78-43f2-a084-517c5d0043e1)
  )
  (wire (pts (xy 173.355 97.79) (xy 173.355 99.695))
    (stroke (width 0) (type default))
    (uuid 17def040-cde3-4715-9fe2-abaaf5d47a50)
  )
  (wire (pts (xy 142.24 95.25) (xy 142.24 95.885))
    (stroke (width 0) (type default))
    (uuid 1cb3b1e7-c61e-46e3-91b1-58a089b33a8c)
  )
  (wire (pts (xy 146.05 97.79) (xy 145.415 97.79))
    (stroke (width 0) (type default))
    (uuid 4b77a3eb-57d2-4cca-9cce-08ba8b9e66f7)
  )
  (bus (pts (xy 86.36 85.09) (xy 104.14 85.09))
    (stroke (width 0) (type default))
    (uuid 5d94c37e-8d2b-451d-ad0e-4c01cd32da9f)
  )

  (wire (pts (xy 145.415 97.79) (xy 145.415 100.965))
    (stroke (width 0) (type default))
    (uuid b94c3cbb-c744-447e-9eea-3c9ec4b663c8)
  )
  (wire (pts (xy 135.255 92.71) (xy 146.05 92.71))
    (stroke (width 0) (type default))
    (uuid bc875dec-f6b1-4ccf-afee-9e7788cf9bb4)
  )
  (wire (pts (xy 86.36 69.85) (xy 86.36 86.36))
    (stroke (width 0) (type default))
    (uuid f1c82a77-32f5-4219-948f-3a4355c891d6)
  )
  (wire (pts (xy 146.05 95.25) (xy 142.24 95.25))
    (stroke (width 0) (type default))
    (uuid f4811ca2-24ef-4c01-99a8-67e5fa25e06d)
  )

  (global_label "1-wire devices" (shape input) (at 104.14 85.09 0) (fields_autoplaced)
    (effects (font (size 1.27 1.27)) (justify left))
    (uuid 6f67b827-299e-4a59-9eef-c1a3529cd88b)
    (property "Intersheetrefs" "${INTERSHEET_REFS}" (at 121.4151 85.09 0)
      (effects (font (size 1.27 1.27)) (justify left) hide)
    )
  )

  (symbol (lib_id "power:GND") (at 173.355 99.695 0) (unit 1)
    (in_bom yes) (on_board yes) (dnp no) (fields_autoplaced)
    (uuid 09fd710e-4f69-430b-b4d6-96d98626ff4b)
    (property "Reference" "#PWR07" (at 173.355 106.045 0)
      (effects (font (size 1.27 1.27)) hide)
    )
    (property "Value" "GND" (at 173.355 104.14 0)
      (effects (font (size 1.27 1.27)))
    )
    (property "Footprint" "" (at 173.355 99.695 0)
      (effects (font (size 1.27 1.27)) hide)
    )
    (property "Datasheet" "" (at 173.355 99.695 0)
      (effects (font (size 1.27 1.27)) hide)
    )
    (pin "1" (uuid 62a438d4-9db8-48d4-aa69-aab1ed843dfd))
    (instances
      (project "practise1"
        (path "/98306595-2355-423b-a559-e4dfdcac2bcc"
          (reference "#PWR07") (unit 1)
        )
      )
    )
  )

  (symbol (lib_id "power:VDD") (at 73.66 93.98 0) (unit 1)
    (in_bom yes) (on_board yes) (dnp no) (fields_autoplaced)
    (uuid 2e123f9b-79b9-46ef-ada6-495ba3367994)
    (property "Reference" "#PWR01" (at 73.66 97.79 0)
      (effects (font (size 1.27 1.27)) hide)
    )
    (property "Value" "VDD" (at 73.66 90.17 0)
      (effects (font (size 1.27 1.27)))
    )
    (property "Footprint" "" (at 73.66 93.98 0)
      (effects (font (size 1.27 1.27)) hide)
    )
    (property "Datasheet" "" (at 73.66 93.98 0)
      (effects (font (size 1.27 1.27)) hide)
    )
    (pin "1" (uuid c921aa62-2f37-4d8f-8c3d-23e55ebd763d))
    (instances
      (project "practise1"
        (path "/98306595-2355-423b-a559-e4dfdcac2bcc"
          (reference "#PWR01") (unit 1)
        )
      )
    )
  )

  (symbol (lib_id "Device:R") (at 135.255 96.52 0) (unit 1)
    (in_bom yes) (on_board yes) (dnp no) (fields_autoplaced)
    (uuid 38a31d5f-d51e-4dcb-b24b-3722b52aa647)
    (property "Reference" "R1" (at 137.795 95.885 0)
      (effects (font (size 1.27 1.27)) (justify left))
    )
    (property "Value" "4.7k" (at 137.795 98.425 0)
      (effects (font (size 1.27 1.27)) (justify left))
    )
    (property "Footprint" "" (at 133.477 96.52 90)
      (effects (font (size 1.27 1.27)) hide)
    )
    (property "Datasheet" "~" (at 135.255 96.52 0)
      (effects (font (size 1.27 1.27)) hide)
    )
    (pin "1" (uuid 57c3a8b5-7863-46b0-a288-507003573029))
    (pin "2" (uuid 915ff828-79c0-4b6b-a251-ab5b8f54bd5b))
    (instances
      (project "practise1"
        (path "/98306595-2355-423b-a559-e4dfdcac2bcc"
          (reference "R1") (unit 1)
        )
      )
    )
  )

  (symbol (lib_id "Device:C_Small") (at 135.255 102.87 0) (unit 1)
    (in_bom yes) (on_board yes) (dnp no) (fields_autoplaced)
    (uuid 5d1d8c9f-cac3-4b5e-b9e2-1710d685ff4c)
    (property "Reference" "C1" (at 138.43 102.2413 0)
      (effects (font (size 1.27 1.27)) (justify left))
    )
    (property "Value" "1uF" (at 138.43 104.7813 0)
      (effects (font (size 1.27 1.27)) (justify left))
    )
    (property "Footprint" "" (at 135.255 102.87 0)
      (effects (font (size 1.27 1.27)) hide)
    )
    (property "Datasheet" "~" (at 135.255 102.87 0)
      (effects (font (size 1.27 1.27)) hide)
    )
    (pin "1" (uuid 3f3d5b14-329e-4c96-8a8e-f139cac437dd))
    (pin "2" (uuid 79faf96d-ca87-460b-bee6-e09fbd6a4a3b))
    (instances
      (project "practise1"
        (path "/98306595-2355-423b-a559-e4dfdcac2bcc"
          (reference "C1") (unit 1)
        )
      )
    )
  )

  (symbol (lib_id "power:GND") (at 93.98 93.98 0) (unit 1)
    (in_bom yes) (on_board yes) (dnp no) (fields_autoplaced)
    (uuid 75e67c86-6649-45db-885b-67c46b876f94)
    (property "Reference" "#PWR02" (at 93.98 100.33 0)
      (effects (font (size 1.27 1.27)) hide)
    )
    (property "Value" "GND" (at 93.98 99.06 0)
      (effects (font (size 1.27 1.27)))
    )
    (property "Footprint" "" (at 93.98 93.98 0)
      (effects (font (size 1.27 1.27)) hide)
    )
    (property "Datasheet" "" (at 93.98 93.98 0)
      (effects (font (size 1.27 1.27)) hide)
    )
    (pin "1" (uuid 428fe377-a9cf-452e-b56f-db2ded0dc8b2))
    (instances
      (project "practise1"
        (path "/98306595-2355-423b-a559-e4dfdcac2bcc"
          (reference "#PWR02") (unit 1)
        )
      )
    )
  )

  (symbol (lib_id "power:GND") (at 135.255 105.41 0) (unit 1)
    (in_bom yes) (on_board yes) (dnp no) (fields_autoplaced)
    (uuid 7b80891d-a260-416b-ad4a-f9bc3732bcfa)
    (property "Reference" "#PWR04" (at 135.255 111.76 0)
      (effects (font (size 1.27 1.27)) hide)
    )
    (property "Value" "GND" (at 135.255 110.49 0)
      (effects (font (size 1.27 1.27)))
    )
    (property "Footprint" "" (at 135.255 105.41 0)
      (effects (font (size 1.27 1.27)) hide)
    )
    (property "Datasheet" "" (at 135.255 105.41 0)
      (effects (font (size 1.27 1.27)) hide)
    )
    (pin "1" (uuid 5c612b16-e9ef-47e1-82e7-d85f0ce40224))
    (instances
      (project "practise1"
        (path "/98306595-2355-423b-a559-e4dfdcac2bcc"
          (reference "#PWR04") (unit 1)
        )
      )
    )
  )

  (symbol (lib_id "Sensor_Temperature:MAX31820") (at 86.36 93.98 90) (unit 1)
    (in_bom yes) (on_board yes) (dnp no) (fields_autoplaced)
    (uuid 87726093-e83e-45fe-b079-22dcdbd34af7)
    (property "Reference" "U1" (at 86.36 101.6 90)
      (effects (font (size 1.27 1.27)))
    )
    (property "Value" "MAX31820" (at 86.36 104.14 90)
      (effects (font (size 1.27 1.27)))
    )
    (property "Footprint" "Package_TO_SOT_THT:TO-92_Inline" (at 92.71 119.38 0)
      (effects (font (size 1.27 1.27)) hide)
    )
    (property "Datasheet" "http://datasheets.maximintegrated.com/en/ds/MAX31820.pdf" (at 80.01 97.79 0)
      (effects (font (size 1.27 1.27)) hide)
    )
    (pin "1" (uuid a6adf7de-efd5-4b70-8c9b-35ac7d281974))
    (pin "2" (uuid 0c3759c9-2df0-49e8-8568-b177d39f0758))
    (pin "3" (uuid 5fe7605a-604e-47e4-984d-03eb5b574b12))
    (instances
      (project "practise1"
        (path "/98306595-2355-423b-a559-e4dfdcac2bcc"
          (reference "U1") (unit 1)
        )
      )
    )
  )

  (symbol (lib_id "power:VDD") (at 86.36 69.85 0) (unit 1)
    (in_bom yes) (on_board yes) (dnp no) (fields_autoplaced)
    (uuid a38e4e53-4ec5-4ccb-96e8-f8f27585f5ce)
    (property "Reference" "#PWR03" (at 86.36 73.66 0)
      (effects (font (size 1.27 1.27)) hide)
    )
    (property "Value" "VDD" (at 86.36 66.04 0)
      (effects (font (size 1.27 1.27)))
    )
    (property "Footprint" "" (at 86.36 69.85 0)
      (effects (font (size 1.27 1.27)) hide)
    )
    (property "Datasheet" "" (at 86.36 69.85 0)
      (effects (font (size 1.27 1.27)) hide)
    )
    (pin "1" (uuid 540e6423-1639-4e14-b214-a38f0d578a08))
    (instances
      (project "practise1"
        (path "/98306595-2355-423b-a559-e4dfdcac2bcc"
          (reference "#PWR03") (unit 1)
        )
      )
    )
  )

  (symbol (lib_id "power:VDD") (at 145.415 100.965 180) (unit 1)
    (in_bom yes) (on_board yes) (dnp no) (fields_autoplaced)
    (uuid a438e617-6524-483b-b897-87bc9394e56d)
    (property "Reference" "#PWR06" (at 145.415 97.155 0)
      (effects (font (size 1.27 1.27)) hide)
    )
    (property "Value" "VDD" (at 145.415 105.41 0)
      (effects (font (size 1.27 1.27)))
    )
    (property "Footprint" "" (at 145.415 100.965 0)
      (effects (font (size 1.27 1.27)) hide)
    )
    (property "Datasheet" "" (at 145.415 100.965 0)
      (effects (font (size 1.27 1.27)) hide)
    )
    (pin "1" (uuid 2673e8e6-8895-42a5-bc4a-f152fd2c3657))
    (instances
      (project "practise1"
        (path "/98306595-2355-423b-a559-e4dfdcac2bcc"
          (reference "#PWR06") (unit 1)
        )
      )
    )
  )

  (symbol (lib_id "power:GND") (at 142.24 95.885 0) (unit 1)
    (in_bom yes) (on_board yes) (dnp no) (fields_autoplaced)
    (uuid a9f3c6f1-66f0-40b9-a9f3-f9ea99a49423)
    (property "Reference" "#PWR05" (at 142.24 102.235 0)
      (effects (font (size 1.27 1.27)) hide)
    )
    (property "Value" "GND" (at 142.24 100.33 0)
      (effects (font (size 1.27 1.27)))
    )
    (property "Footprint" "" (at 142.24 95.885 0)
      (effects (font (size 1.27 1.27)) hide)
    )
    (property "Datasheet" "" (at 142.24 95.885 0)
      (effects (font (size 1.27 1.27)) hide)
    )
    (pin "1" (uuid 326b1f01-e473-40ae-95d3-30191d963c2b))
    (instances
      (project "practise1"
        (path "/98306595-2355-423b-a559-e4dfdcac2bcc"
          (reference "#PWR05") (unit 1)
        )
      )
    )
  )

  (symbol (lib_name "U_1") (lib_id "New_Library:U") (at 158.75 95.25 0) (unit 1)
    (in_bom yes) (on_board yes) (dnp no) (fields_autoplaced)
    (uuid ac31944b-eb45-41e8-9efc-8af9beb619d0)
    (property "Reference" "U2" (at 158.75 102.87 0)
      (effects (font (size 1.27 1.27)))
    )
    (property "Value" "" (at 154.94 88.9 0)
      (effects (font (size 1.27 1.27)))
    )
    (property "Footprint" "" (at 154.94 88.9 0)
      (effects (font (size 1.27 1.27)) hide)
    )
    (property "Datasheet" "" (at 154.94 88.9 0)
      (effects (font (size 1.27 1.27)) hide)
    )
    (pin "1" (uuid 1ce68b39-d62e-41f1-840c-ecc0f31b6a7e))
    (pin "2" (uuid 9503b20e-e109-414d-9cca-25a905ab8d29))
    (pin "3" (uuid a1de5a90-893e-4e33-9315-3a53d13739f7))
    (pin "4" (uuid 9b0b6073-a840-4287-8c4e-c17aa1eafe80))
    (pin "5" (uuid 952e1250-6dc1-446d-8e40-f41cf731eb59))
    (pin "6" (uuid 3352279a-f064-4188-acbf-403020caa126))
    (pin "7" (uuid 7eed066d-db18-448f-a7f5-47abc455d92e))
    (instances
      (project "practise1"
        (path "/98306595-2355-423b-a559-e4dfdcac2bcc"
          (reference "U2") (unit 1)
        )
      )
    )
  )

  (sheet_instances
    (path "/" (page "1"))
  )
)
