Comment,Designator,Footprint,LCSC Part Number
10uF,"C1, C17, C19",C0603,C19702
30pF,"C10, C11",C0603,C1658
100nF,"C12, C14, C15, C20, C6, C7, C8, C9",C0402_NEW,C1525
10nF,C13,C0805,C1710
1uF,"C16, C18, C2, C4",C0603,C15849
4.7uF,"C3, C5",C0805,C1779
LED,"D1, D3, D4, D7",LED0603-R-RD_WHITE,C2290
1N5819,"D5, D6",D_DO-41_SOD81_P10.16mm_Horizontal,C191023
MICROXNJ,J1,USB_Conn_JLC_LCSC_C404969,C404969
Q_PMOS_GSD,Q1,SOT-23_L2.9-W1.3-P1.90-LS2.4-BR,C8492
150Ω,"R1, R10, R11, R12, R21, R3, R5",R0603,C22808
2kΩ,"R13, R14, R9",R1206,C17944
0Ω,"R15, R16",RES-TH_BD1.9-L3.3-P7.30-D0.5,C119112
4.3kΩ,"R19, R27",R0603,C23159
10kΩ,"R2, R22, R4, R6",R0603,C25804
4.7kΩ,"R20, R24",R0805,C17673
470Ω,"R7, R8",R0603,C23179
MCP1702T-3302E/CB,U1,SOT-23-3_L2.9-W1.3-P1.90-LS2.4-BR,C33844
AO3400A,"U10, U9",SOT-23-3_L2.9-W1.6-P1.90-LS2.8-BR,C20917
DW01,U2,SOT-23-6_L2.9-W1.6-P0.95-LS2.8-BR,C181096
CAT24C256WI-G,U3,SOIC-8_L4.9-W3.9-P1.27-LS6.0-BL,C79987
TMP112AIDRLR,U4,SOT-563,C3019122
MCP73831T-2ACI/OT,U5,SOT-23-5_L3.0-W1.7-P0.95-LS2.8-BL,C424093
CH340N,U6,SOP-8_L5.0-W4.0-P1.27-LS6.0-BL,C506813
BH1603FVC ,U7,WSOF-6_L2.6-W1.6-P0.50-BL-EP,C132180
LM2775DSG,U8,WSON-8-1EP_2x2mm_P0.5mm_EP0.9x1.6mm_ThermalVias,C473361
Crystal - 8MHz,Y1,CRYSTAL-SMD_L11.5-W4.8-LS12.7,C12674
