(kicad_sch (version 20230121) (generator eeschema)

  (uuid 06fb00fa-6bee-4f0e-b548-74eddd961a20)

  (paper "A4")

  (title_block
    (title "Light and Temperature Sensor System")
    (date "2023-03-13")
    (rev "v.2.0.1")
    (company "Bright Ideas")
    (comment 3 "University of Cape Town")
    (comment 4 "Editor: All")
  )

  (lib_symbols
  )


  (wire (pts (xy 86.36 111.76) (xy 179.07 111.76))
    (stroke (width 0) (type default))
    (uuid 350a0c5f-6d1d-4ba0-8a1b-a57e69acc48b)
  )
  (wire (pts (xy 171.45 68.58) (xy 171.45 104.14))
    (stroke (width 0) (type default))
    (uuid 7f92979e-7613-4094-aaac-4132b051c5d1)
  )
  (wire (pts (xy 175.26 107.95) (xy 86.36 107.95))
    (stroke (width 0) (type default))
    (uuid 8b0fcc1c-1d22-45cf-bdc5-c58067442c93)
  )
  (wire (pts (xy 182.88 115.57) (xy 182.88 68.58))
    (stroke (width 0) (type default))
    (uuid 9456371c-bd98-4934-9744-10cf52d4b75b)
  )
  (wire (pts (xy 179.07 111.76) (xy 179.07 68.58))
    (stroke (width 0) (type default))
    (uuid 9bcb6ea4-934f-41e9-8760-28fcb8b7f52a)
  )
  (wire (pts (xy 171.45 104.14) (xy 86.36 104.14))
    (stroke (width 0) (type default))
    (uuid de2f38c8-f592-4552-843c-2f26e539927f)
  )
  (wire (pts (xy 167.64 100.33) (xy 167.64 68.58))
    (stroke (width 0) (type default))
    (uuid e1171f10-c24a-4733-905d-df115c13fd6a)
  )
  (wire (pts (xy 86.36 100.33) (xy 167.64 100.33))
    (stroke (width 0) (type default))
    (uuid edb79588-ba2d-47e8-a315-79be9e9b700c)
  )
  (wire (pts (xy 175.26 68.58) (xy 175.26 107.95))
    (stroke (width 0) (type default))
    (uuid feb805b3-f82e-47ef-9c83-a1a7c5a994bb)
  )
  (wire (pts (xy 86.36 115.57) (xy 182.88 115.57))
    (stroke (width 0) (type default))
    (uuid fec0b393-0ccd-4a4d-a0ca-5e7562526644)
  )

  (sheet (at 213.36 114.3) (size 58.42 43.18) (fields_autoplaced)
    (stroke (width 0.1524) (type solid))
    (fill (color 0 0 0 0.0000))
    (uuid 1b72b9b9-7f8d-47ac-b3a2-2a8922a23d51)
    (property "Sheetname" "Motor" (at 213.36 113.5884 0)
      (effects (font (size 1.27 1.27)) (justify left bottom))
    )
    (property "Sheetfile" "ALTO_Motor.kicad_sch" (at 213.36 158.0646 0)
      (effects (font (size 1.27 1.27)) (justify left top))
    )
    (instances
      (project "ALTO_PCB"
        (path "/06fb00fa-6bee-4f0e-b548-74eddd961a20" (page "5"))
      )
    )
  )

  (sheet (at 137.16 25.4) (size 52.07 43.18) (fields_autoplaced)
    (stroke (width 0.1524) (type solid))
    (fill (color 0 0 0 0.0000))
    (uuid 57d4afc4-2faf-4553-abf7-dcda24cb188c)
    (property "Sheetname" "Microcontroller" (at 137.16 24.6884 0)
      (effects (font (size 1.27 1.27)) (justify left bottom))
    )
    (property "Sheetfile" "ALTO_Microcontroller.kicad_sch" (at 137.16 69.1646 0)
      (effects (font (size 1.27 1.27)) (justify left top))
    )
    (pin "I2C_SCL_DSensor" input (at 175.26 68.58 270)
      (effects (font (size 1.27 1.27)) (justify left))
      (uuid 0a819ffe-9843-451b-add7-86d71ee1396e)
    )
    (pin "I2C_SDA_DSensor" input (at 179.07 68.58 270)
      (effects (font (size 1.27 1.27)) (justify left))
      (uuid 6bde31ec-9a04-40d1-8a7f-5bc84d158867)
    )
    (pin "GPIO_AnSensOut" input (at 182.88 68.58 270)
      (effects (font (size 1.27 1.27)) (justify left))
      (uuid fbffbdb8-6f02-4cc3-a8da-51a4d6af4df2)
    )
    (pin "AnSens_GC1" input (at 171.45 68.58 270)
      (effects (font (size 1.27 1.27)) (justify left))
      (uuid 019f0d5b-fd38-4ac8-88ae-a8479b6d5ec9)
    )
    (pin "AnSens_GC2" input (at 167.64 68.58 270)
      (effects (font (size 1.27 1.27)) (justify left))
      (uuid 76c51b69-74c5-4015-8ce5-8150156d4771)
    )
    (instances
      (project "ALTO_PCB"
        (path "/06fb00fa-6bee-4f0e-b548-74eddd961a20" (page "3"))
      )
    )
  )

  (sheet (at 31.75 26.67) (size 54.61 41.91) (fields_autoplaced)
    (stroke (width 0.1524) (type solid))
    (fill (color 0 0 0 0.0000))
    (uuid dd4b035d-f427-49e8-8b59-c8b8ed413838)
    (property "Sheetname" "Power Source" (at 31.75 25.9584 0)
      (effects (font (size 1.27 1.27)) (justify left bottom))
    )
    (property "Sheetfile" "ALTO_Power.kicad_sch" (at 31.75 69.1646 0)
      (effects (font (size 1.27 1.27)) (justify left top))
    )
    (instances
      (project "ALTO_PCB"
        (path "/06fb00fa-6bee-4f0e-b548-74eddd961a20" (page "2"))
      )
    )
  )

  (sheet (at 31.75 83.82) (size 54.61 40.64) (fields_autoplaced)
    (stroke (width 0.1524) (type solid))
    (fill (color 0 0 0 0.0000))
    (uuid eeb3ad36-8a30-4e81-915e-eb87d9d0e658)
    (property "Sheetname" "Sensor" (at 31.75 83.1084 0)
      (effects (font (size 1.27 1.27)) (justify left bottom))
    )
    (property "Sheetfile" "ALTO_Sensor.kicad_sch" (at 31.75 125.0446 0)
      (effects (font (size 1.27 1.27)) (justify left top))
    )
    (pin "I2C_SCL_DSensor" input (at 86.36 111.76 0)
      (effects (font (size 1.27 1.27)) (justify right))
      (uuid 999ab212-e389-481c-bade-438e316bb184)
    )
    (pin "I2C_SDA_DSensor" input (at 86.36 107.95 0)
      (effects (font (size 1.27 1.27)) (justify right))
      (uuid 4af304d3-c76b-4f5d-9f83-d2b9fbc1d594)
    )
    (pin "GPIO_AnSensOut" input (at 86.36 115.57 0)
      (effects (font (size 1.27 1.27)) (justify right))
      (uuid fcaf1c74-8ec9-4865-9478-2800e2b971f3)
    )
    (pin "AnSens_GC1" input (at 86.36 104.14 0)
      (effects (font (size 1.27 1.27)) (justify right))
      (uuid 293b2486-8c0d-4439-9e8a-3d7ccf16745f)
    )
    (pin "AnSens_GC2" input (at 86.36 100.33 0)
      (effects (font (size 1.27 1.27)) (justify right))
      (uuid c14869a9-4901-47e7-ab28-f5b6c85ffa8b)
    )
    (instances
      (project "ALTO_PCB"
        (path "/06fb00fa-6bee-4f0e-b548-74eddd961a20" (page "4"))
      )
    )
  )

  (sheet_instances
    (path "/" (page "1"))
  )
)
