Source:,,D:\Dante\OneDrive - University of Cape Town\UCT\3rd year\1st Semester\EEE3088F\Main Project\Design Schematic\Design Schematic.kicad_sch,,,,,,,,,
Date:,,2023/03/05 00:19,,,,,,,,,
Tool:,,Eeschema (7.0.0),,,,,,,,,
Generator:,,D:\Program Files\KiCad\7.0\bin\scripting\plugins/bom_csv_grouped_by_value_with_fp.py,,,,,,,,,
Component Count:,,17,,,,,,,,,
Ref,Qnty * 5,Qnty,Value,Cmp name,Footprint,Description,Vendor,DNP,Part #:,Price:,Total Price:
C1,5,1,100nF,C,,Unpolarized capacitor,,,C366281, $0.01 , $0.05 
"C2, C3",10,2,10pF,C,,Unpolarized capacitor,,,C260724, $0.02 , $0.20 
D1,5,1,LED,LED,,Light emitting diode,,,C2304, $0.01 , $0.07 
J1,5,1,USB_B_Micro,USB_B_Micro,,USB Micro Type B connector,,,C404969, $0.03 , $0.15 
R1,5,1,10k?,R_Small_US,,"Resistor, small US symbol",,,C25804, $0.01 , $0.05 
R2,5,1,150?,R_Small_US,,"Resistor, small US symbol",,,C22808, $0.01 , $0.05 
SW0,5,1,Reset Switch,SW_Push,,"Push button switch, generic, two pins",,,C134191, $0.18 , $0.89 
SW1,5,1,Light Mode Switch,SW_Push,,"Push button switch, generic, two pins",,,C134191, $0.18 , $0.89 
SW2,5,1,Manual Blind Open,SW_Push,,"Push button switch, generic, two pins",,,C134191, $0.18 , $0.89 
SW3,5,1,Manual Blind Close,SW_Push,,"Push button switch, generic, two pins",,,C134191, $0.18 , $0.89 
U1,5,1,STM32F051C6Tx,STM32F051C6Tx,Package_QFP:LQFP-48_7x7mm_P0.5mm,"STMicroelectronics Arm Cortex-M0 MCU, 32KB flash, 8KB RAM, 48 MHz, 2.0-3.6V, 39 GPIO, LQFP48",,,, $-   , $-   
U2,5,1,CAT24C256,CAT24C256,,"256 kb CMOS Serial EEPROM, DIP-8/SOIC-8/TSSOP-8/DFN-8",,,C6482, $0.52 , $2.60 
U3,5,1,~,stm32f1-dubugger,,,,,, $-   , $-   
Y1,5,1,Crystal - 8MHz,Crystal,,Two pin crystal 8MHz,,,C12674, $0.43 , $2.15 
TOTAL:,,,,,,,,,, $1.76 , $8.88 
